{
  "type": "object",
  "required" : [
    "id",
    "url",
    "primary",
    "enabled",
    "current",
    "files_max_capacity",
    "repos_max_capacity",
    "clone_protocol"
  ],
  "properties" : {
    "id": { "type": "integer" },
    "url": { "type": ["string", "null"] },
    "primary": { "type": "boolean" },
    "enabled": { "type": "boolean" },
    "current": { "type": "boolean" },
    "files_max_capacity": { "type": "integer" },
    "repos_max_capacity": { "type": "integer" },
    "clone_protocol": { "type": ["string"] }
  },
  "additionalProperties": false
}
